<?xml version="1.0" encoding="UTF-8"?>
<testsuite xmlns:xsi="http://www.w3.org/2001/XMLSchema-instance" xsi:noNamespaceSchemaLocation="https://maven.apache.org/surefire/maven-surefire-plugin/xsd/surefire-test-report-3.0.xsd" version="3.0" name="TestSuite" time="11.459" tests="4" errors="0" skipped="0" failures="1">
  <properties>
    <property name="gopherProxySet" value="false"/>
    <property name="awt.toolkit" value="sun.lwawt.macosx.LWCToolkit"/>
    <property name="file.encoding.pkg" value="sun.io"/>
    <property name="java.specification.version" value="1.8"/>
    <property name="sun.cpu.isalist" value=""/>
    <property name="sun.jnu.encoding" value="UTF-8"/>
    <property name="java.class.path" value="/Users/vardhmangolchha/Documents/RestAssuredTest/target/test-classes:/Users/vardhmangolchha/Documents/RestAssuredTest/target/classes:/Users/vardhmangolchha/.m2/repository/dom4j/dom4j/1.6.1/dom4j-1.6.1.jar:/Users/vardhmangolchha/.m2/repository/xml-apis/xml-apis/1.0.b2/xml-apis-1.0.b2.jar:/Users/vardhmangolchha/.m2/repository/commons-io/commons-io/2.6/commons-io-2.6.jar:/Users/vardhmangolchha/.m2/repository/com/google/guava/guava/25.0-jre/guava-25.0-jre.jar:/Users/vardhmangolchha/.m2/repository/com/google/code/findbugs/jsr305/1.3.9/jsr305-1.3.9.jar:/Users/vardhmangolchha/.m2/repository/org/checkerframework/checker-compat-qual/2.0.0/checker-compat-qual-2.0.0.jar:/Users/vardhmangolchha/.m2/repository/com/google/errorprone/error_prone_annotations/2.1.3/error_prone_annotations-2.1.3.jar:/Users/vardhmangolchha/.m2/repository/com/google/j2objc/j2objc-annotations/1.1/j2objc-annotations-1.1.jar:/Users/vardhmangolchha/.m2/repository/org/codehaus/mojo/animal-sniffer-annotations/1.14/animal-sniffer-annotations-1.14.jar:/Users/vardhmangolchha/.m2/repository/com/jayway/jsonpath/json-path/2.4.0/json-path-2.4.0.jar:/Users/vardhmangolchha/.m2/repository/net/minidev/json-smart/2.3/json-smart-2.3.jar:/Users/vardhmangolchha/.m2/repository/net/minidev/accessors-smart/1.2/accessors-smart-1.2.jar:/Users/vardhmangolchha/.m2/repository/org/ow2/asm/asm/5.0.4/asm-5.0.4.jar:/Users/vardhmangolchha/.m2/repository/org/slf4j/slf4j-api/1.7.25/slf4j-api-1.7.25.jar:/Users/vardhmangolchha/.m2/repository/com/relevantcodes/extentreports/2.41.2/extentreports-2.41.2.jar:/Users/vardhmangolchha/.m2/repository/org/jsoup/jsoup/1.8.3/jsoup-1.8.3.jar:/Users/vardhmangolchha/.m2/repository/org/xerial/sqlite-jdbc/3.8.11.1/sqlite-jdbc-3.8.11.1.jar:/Users/vardhmangolchha/.m2/repository/org/freemarker/freemarker/2.3.23/freemarker-2.3.23.jar:/Users/vardhmangolchha/.m2/repository/org/mongodb/mongodb-driver/3.0.4/mongodb-driver-3.0.4.jar:/Users/vardhmangolchha/.m2/repository/org/mongodb/bson/3.0.4/bson-3.0.4.jar:/Users/vardhmangolchha/.m2/repository/org/mongodb/mongodb-driver-core/3.0.4/mongodb-driver-core-3.0.4.jar:/Users/vardhmangolchha/.m2/repository/org/apache/directory/studio/org.apache.commons.io/2.4/org.apache.commons.io-2.4.jar:/Users/vardhmangolchha/.m2/repository/com/fasterxml/jackson/core/jackson-core/2.10.2/jackson-core-2.10.2.jar:/Users/vardhmangolchha/.m2/repository/org/json/json/20190722/json-20190722.jar:/Users/vardhmangolchha/.m2/repository/com/fasterxml/jackson/core/jackson-databind/2.10.3/jackson-databind-2.10.3.jar:/Users/vardhmangolchha/.m2/repository/com/fasterxml/jackson/core/jackson-annotations/2.10.3/jackson-annotations-2.10.3.jar:/Users/vardhmangolchha/.m2/repository/io/rest-assured/rest-assured/4.0.0/rest-assured-4.0.0.jar:/Users/vardhmangolchha/.m2/repository/org/codehaus/groovy/groovy/2.5.6/groovy-2.5.6.jar:/Users/vardhmangolchha/.m2/repository/org/codehaus/groovy/groovy-xml/2.5.6/groovy-xml-2.5.6.jar:/Users/vardhmangolchha/.m2/repository/org/apache/httpcomponents/httpclient/4.5.3/httpclient-4.5.3.jar:/Users/vardhmangolchha/.m2/repository/org/apache/httpcomponents/httpcore/4.4.6/httpcore-4.4.6.jar:/Users/vardhmangolchha/.m2/repository/commons-logging/commons-logging/1.2/commons-logging-1.2.jar:/Users/vardhmangolchha/.m2/repository/org/apache/httpcomponents/httpmime/4.5.3/httpmime-4.5.3.jar:/Users/vardhmangolchha/.m2/repository/org/hamcrest/hamcrest-core/2.1/hamcrest-core-2.1.jar:/Users/vardhmangolchha/.m2/repository/org/hamcrest/hamcrest/2.1/hamcrest-2.1.jar:/Users/vardhmangolchha/.m2/repository/org/hamcrest/hamcrest-library/2.1/hamcrest-library-2.1.jar:/Users/vardhmangolchha/.m2/repository/org/ccil/cowan/tagsoup/tagsoup/1.2.1/tagsoup-1.2.1.jar:/Users/vardhmangolchha/.m2/repository/io/rest-assured/json-path/4.0.0/json-path-4.0.0.jar:/Users/vardhmangolchha/.m2/repository/org/codehaus/groovy/groovy-json/2.5.6/groovy-json-2.5.6.jar:/Users/vardhmangolchha/.m2/repository/io/rest-assured/rest-assured-common/4.0.0/rest-assured-common-4.0.0.jar:/Users/vardhmangolchha/.m2/repository/io/rest-assured/xml-path/4.0.0/xml-path-4.0.0.jar:/Users/vardhmangolchha/.m2/repository/org/apache/commons/commons-lang3/3.4/commons-lang3-3.4.jar:/Users/vardhmangolchha/.m2/repository/javax/xml/bind/jaxb-api/2.2.12/jaxb-api-2.2.12.jar:/Users/vardhmangolchha/.m2/repository/com/sun/xml/bind/jaxb-osgi/2.2.10/jaxb-osgi-2.2.10.jar:/Users/vardhmangolchha/.m2/repository/org/apache/sling/org.apache.sling.javax.activation/0.1.0/org.apache.sling.javax.activation-0.1.0.jar:/Users/vardhmangolchha/.m2/repository/org/apache/poi/poi/3.9/poi-3.9.jar:/Users/vardhmangolchha/.m2/repository/commons-codec/commons-codec/1.5/commons-codec-1.5.jar:/Users/vardhmangolchha/.m2/repository/org/apache/poi/poi-ooxml/3.9/poi-ooxml-3.9.jar:/Users/vardhmangolchha/.m2/repository/org/apache/poi/poi-ooxml-schemas/3.9/poi-ooxml-schemas-3.9.jar:/Users/vardhmangolchha/.m2/repository/org/apache/xmlbeans/xmlbeans/2.3.0/xmlbeans-2.3.0.jar:/Users/vardhmangolchha/.m2/repository/stax/stax-api/1.0.1/stax-api-1.0.1.jar:/Users/vardhmangolchha/.m2/repository/org/apache/poi/poi-scratchpad/3.9/poi-scratchpad-3.9.jar:/Users/vardhmangolchha/.m2/repository/org/apache/poi/ooxml-schemas/1.1/ooxml-schemas-1.1.jar:/Users/vardhmangolchha/.m2/repository/org/apache/poi/openxml4j/1.0-beta/openxml4j-1.0-beta.jar:/Users/vardhmangolchha/.m2/repository/log4j/log4j/1.2.8/log4j-1.2.8.jar:/Users/vardhmangolchha/.m2/repository/org/apache/commons/commons-email/1.5/commons-email-1.5.jar:/Users/vardhmangolchha/.m2/repository/com/sun/mail/javax.mail/1.5.6/javax.mail-1.5.6.jar:/Users/vardhmangolchha/.m2/repository/javax/activation/activation/1.1/activation-1.1.jar:/Users/vardhmangolchha/.m2/repository/org/testng/testng/6.14.3/testng-6.14.3.jar:/Users/vardhmangolchha/.m2/repository/com/beust/jcommander/1.72/jcommander-1.72.jar:/Users/vardhmangolchha/.m2/repository/org/apache-extras/beanshell/bsh/2.0b6/bsh-2.0b6.jar:"/>
    <property name="sun.awt.enableExtraMouseButtons" value="true"/>
    <property name="java.vm.vendor" value="Oracle Corporation"/>
    <property name="sun.arch.data.model" value="64"/>
    <property name="sun.font.fontmanager" value="sun.font.CFontManager"/>
    <property name="java.vendor.url" value="http://java.oracle.com/"/>
    <property name="user.timezone" value="Asia/Dubai"/>
    <property name="java.vm.specification.version" value="1.8"/>
    <property name="os.name" value="Mac OS X"/>
    <property name="user.country" value="IN"/>
    <property name="sun.java.launcher" value="SUN_STANDARD"/>
    <property name="sun.boot.library.path" value="/Library/Java/JavaVirtualMachines/jdk1.8.0_202.jdk/Contents/Home/jre/lib"/>
    <property name="sun.java.command" value="/Users/vardhmangolchha/Documents/RestAssuredTest/target/surefire/surefirebooter2979857829723975542.jar /Users/vardhmangolchha/Documents/RestAssuredTest/target/surefire 2020-12-13T07-44-51_490-jvmRun1 surefire1806548229062933014tmp surefire_03962864428970093131tmp"/>
    <property name="http.nonProxyHosts" value="local|*.local|169.254/16|*.169.254/16"/>
    <property name="surefire.test.class.path" value="/Users/vardhmangolchha/Documents/RestAssuredTest/target/test-classes:/Users/vardhmangolchha/Documents/RestAssuredTest/target/classes:/Users/vardhmangolchha/.m2/repository/dom4j/dom4j/1.6.1/dom4j-1.6.1.jar:/Users/vardhmangolchha/.m2/repository/xml-apis/xml-apis/1.0.b2/xml-apis-1.0.b2.jar:/Users/vardhmangolchha/.m2/repository/commons-io/commons-io/2.6/commons-io-2.6.jar:/Users/vardhmangolchha/.m2/repository/com/google/guava/guava/25.0-jre/guava-25.0-jre.jar:/Users/vardhmangolchha/.m2/repository/com/google/code/findbugs/jsr305/1.3.9/jsr305-1.3.9.jar:/Users/vardhmangolchha/.m2/repository/org/checkerframework/checker-compat-qual/2.0.0/checker-compat-qual-2.0.0.jar:/Users/vardhmangolchha/.m2/repository/com/google/errorprone/error_prone_annotations/2.1.3/error_prone_annotations-2.1.3.jar:/Users/vardhmangolchha/.m2/repository/com/google/j2objc/j2objc-annotations/1.1/j2objc-annotations-1.1.jar:/Users/vardhmangolchha/.m2/repository/org/codehaus/mojo/animal-sniffer-annotations/1.14/animal-sniffer-annotations-1.14.jar:/Users/vardhmangolchha/.m2/repository/com/jayway/jsonpath/json-path/2.4.0/json-path-2.4.0.jar:/Users/vardhmangolchha/.m2/repository/net/minidev/json-smart/2.3/json-smart-2.3.jar:/Users/vardhmangolchha/.m2/repository/net/minidev/accessors-smart/1.2/accessors-smart-1.2.jar:/Users/vardhmangolchha/.m2/repository/org/ow2/asm/asm/5.0.4/asm-5.0.4.jar:/Users/vardhmangolchha/.m2/repository/org/slf4j/slf4j-api/1.7.25/slf4j-api-1.7.25.jar:/Users/vardhmangolchha/.m2/repository/com/relevantcodes/extentreports/2.41.2/extentreports-2.41.2.jar:/Users/vardhmangolchha/.m2/repository/org/jsoup/jsoup/1.8.3/jsoup-1.8.3.jar:/Users/vardhmangolchha/.m2/repository/org/xerial/sqlite-jdbc/3.8.11.1/sqlite-jdbc-3.8.11.1.jar:/Users/vardhmangolchha/.m2/repository/org/freemarker/freemarker/2.3.23/freemarker-2.3.23.jar:/Users/vardhmangolchha/.m2/repository/org/mongodb/mongodb-driver/3.0.4/mongodb-driver-3.0.4.jar:/Users/vardhmangolchha/.m2/repository/org/mongodb/bson/3.0.4/bson-3.0.4.jar:/Users/vardhmangolchha/.m2/repository/org/mongodb/mongodb-driver-core/3.0.4/mongodb-driver-core-3.0.4.jar:/Users/vardhmangolchha/.m2/repository/org/apache/directory/studio/org.apache.commons.io/2.4/org.apache.commons.io-2.4.jar:/Users/vardhmangolchha/.m2/repository/com/fasterxml/jackson/core/jackson-core/2.10.2/jackson-core-2.10.2.jar:/Users/vardhmangolchha/.m2/repository/org/json/json/20190722/json-20190722.jar:/Users/vardhmangolchha/.m2/repository/com/fasterxml/jackson/core/jackson-databind/2.10.3/jackson-databind-2.10.3.jar:/Users/vardhmangolchha/.m2/repository/com/fasterxml/jackson/core/jackson-annotations/2.10.3/jackson-annotations-2.10.3.jar:/Users/vardhmangolchha/.m2/repository/io/rest-assured/rest-assured/4.0.0/rest-assured-4.0.0.jar:/Users/vardhmangolchha/.m2/repository/org/codehaus/groovy/groovy/2.5.6/groovy-2.5.6.jar:/Users/vardhmangolchha/.m2/repository/org/codehaus/groovy/groovy-xml/2.5.6/groovy-xml-2.5.6.jar:/Users/vardhmangolchha/.m2/repository/org/apache/httpcomponents/httpclient/4.5.3/httpclient-4.5.3.jar:/Users/vardhmangolchha/.m2/repository/org/apache/httpcomponents/httpcore/4.4.6/httpcore-4.4.6.jar:/Users/vardhmangolchha/.m2/repository/commons-logging/commons-logging/1.2/commons-logging-1.2.jar:/Users/vardhmangolchha/.m2/repository/org/apache/httpcomponents/httpmime/4.5.3/httpmime-4.5.3.jar:/Users/vardhmangolchha/.m2/repository/org/hamcrest/hamcrest-core/2.1/hamcrest-core-2.1.jar:/Users/vardhmangolchha/.m2/repository/org/hamcrest/hamcrest/2.1/hamcrest-2.1.jar:/Users/vardhmangolchha/.m2/repository/org/hamcrest/hamcrest-library/2.1/hamcrest-library-2.1.jar:/Users/vardhmangolchha/.m2/repository/org/ccil/cowan/tagsoup/tagsoup/1.2.1/tagsoup-1.2.1.jar:/Users/vardhmangolchha/.m2/repository/io/rest-assured/json-path/4.0.0/json-path-4.0.0.jar:/Users/vardhmangolchha/.m2/repository/org/codehaus/groovy/groovy-json/2.5.6/groovy-json-2.5.6.jar:/Users/vardhmangolchha/.m2/repository/io/rest-assured/rest-assured-common/4.0.0/rest-assured-common-4.0.0.jar:/Users/vardhmangolchha/.m2/repository/io/rest-assured/xml-path/4.0.0/xml-path-4.0.0.jar:/Users/vardhmangolchha/.m2/repository/org/apache/commons/commons-lang3/3.4/commons-lang3-3.4.jar:/Users/vardhmangolchha/.m2/repository/javax/xml/bind/jaxb-api/2.2.12/jaxb-api-2.2.12.jar:/Users/vardhmangolchha/.m2/repository/com/sun/xml/bind/jaxb-osgi/2.2.10/jaxb-osgi-2.2.10.jar:/Users/vardhmangolchha/.m2/repository/org/apache/sling/org.apache.sling.javax.activation/0.1.0/org.apache.sling.javax.activation-0.1.0.jar:/Users/vardhmangolchha/.m2/repository/org/apache/poi/poi/3.9/poi-3.9.jar:/Users/vardhmangolchha/.m2/repository/commons-codec/commons-codec/1.5/commons-codec-1.5.jar:/Users/vardhmangolchha/.m2/repository/org/apache/poi/poi-ooxml/3.9/poi-ooxml-3.9.jar:/Users/vardhmangolchha/.m2/repository/org/apache/poi/poi-ooxml-schemas/3.9/poi-ooxml-schemas-3.9.jar:/Users/vardhmangolchha/.m2/repository/org/apache/xmlbeans/xmlbeans/2.3.0/xmlbeans-2.3.0.jar:/Users/vardhmangolchha/.m2/repository/stax/stax-api/1.0.1/stax-api-1.0.1.jar:/Users/vardhmangolchha/.m2/repository/org/apache/poi/poi-scratchpad/3.9/poi-scratchpad-3.9.jar:/Users/vardhmangolchha/.m2/repository/org/apache/poi/ooxml-schemas/1.1/ooxml-schemas-1.1.jar:/Users/vardhmangolchha/.m2/repository/org/apache/poi/openxml4j/1.0-beta/openxml4j-1.0-beta.jar:/Users/vardhmangolchha/.m2/repository/log4j/log4j/1.2.8/log4j-1.2.8.jar:/Users/vardhmangolchha/.m2/repository/org/apache/commons/commons-email/1.5/commons-email-1.5.jar:/Users/vardhmangolchha/.m2/repository/com/sun/mail/javax.mail/1.5.6/javax.mail-1.5.6.jar:/Users/vardhmangolchha/.m2/repository/javax/activation/activation/1.1/activation-1.1.jar:/Users/vardhmangolchha/.m2/repository/org/testng/testng/6.14.3/testng-6.14.3.jar:/Users/vardhmangolchha/.m2/repository/com/beust/jcommander/1.72/jcommander-1.72.jar:/Users/vardhmangolchha/.m2/repository/org/apache-extras/beanshell/bsh/2.0b6/bsh-2.0b6.jar:"/>
    <property name="sun.cpu.endian" value="little"/>
    <property name="user.home" value="/Users/vardhmangolchha"/>
    <property name="user.language" value="en"/>
    <property name="java.specification.vendor" value="Oracle Corporation"/>
    <property name="java.home" value="/Library/Java/JavaVirtualMachines/jdk1.8.0_202.jdk/Contents/Home/jre"/>
    <property name="basedir" value="/Users/vardhmangolchha/Documents/RestAssuredTest"/>
    <property name="file.separator" value="/"/>
    <property name="line.separator" value="&#10;"/>
    <property name="java.vm.specification.vendor" value="Oracle Corporation"/>
    <property name="java.specification.name" value="Java Platform API Specification"/>
    <property name="java.awt.graphicsenv" value="sun.awt.CGraphicsEnvironment"/>
    <property name="surefire.real.class.path" value="/Users/vardhmangolchha/Documents/RestAssuredTest/target/surefire/surefirebooter2979857829723975542.jar"/>
    <property name="sun.boot.class.path" value="/Library/Java/JavaVirtualMachines/jdk1.8.0_202.jdk/Contents/Home/jre/lib/resources.jar:/Library/Java/JavaVirtualMachines/jdk1.8.0_202.jdk/Contents/Home/jre/lib/rt.jar:/Library/Java/JavaVirtualMachines/jdk1.8.0_202.jdk/Contents/Home/jre/lib/sunrsasign.jar:/Library/Java/JavaVirtualMachines/jdk1.8.0_202.jdk/Contents/Home/jre/lib/jsse.jar:/Library/Java/JavaVirtualMachines/jdk1.8.0_202.jdk/Contents/Home/jre/lib/jce.jar:/Library/Java/JavaVirtualMachines/jdk1.8.0_202.jdk/Contents/Home/jre/lib/charsets.jar:/Library/Java/JavaVirtualMachines/jdk1.8.0_202.jdk/Contents/Home/jre/lib/jfr.jar:/Library/Java/JavaVirtualMachines/jdk1.8.0_202.jdk/Contents/Home/jre/classes"/>
    <property name="sun.management.compiler" value="HotSpot 64-Bit Tiered Compilers"/>
    <property name="ftp.nonProxyHosts" value="local|*.local|169.254/16|*.169.254/16"/>
    <property name="java.runtime.version" value="1.8.0_202-b08"/>
    <property name="user.name" value="vardhmangolchha"/>
    <property name="path.separator" value=":"/>
    <property name="os.version" value="10.15.7"/>
    <property name="java.endorsed.dirs" value="/Library/Java/JavaVirtualMachines/jdk1.8.0_202.jdk/Contents/Home/jre/lib/endorsed"/>
    <property name="java.runtime.name" value="Java(TM) SE Runtime Environment"/>
    <property name="file.encoding" value="US-ASCII"/>
    <property name="java.vm.name" value="Java HotSpot(TM) 64-Bit Server VM"/>
    <property name="localRepository" value="/Users/vardhmangolchha/.m2/repository"/>
    <property name="java.vendor.url.bug" value="http://bugreport.sun.com/bugreport/"/>
    <property name="java.io.tmpdir" value="/var/folders/hb/vbyt7k3j3bq3fby7f4t8mg500000gn/T/"/>
    <property name="java.version" value="1.8.0_202"/>
    <property name="user.dir" value="/Users/vardhmangolchha/Documents/RestAssuredTest"/>
    <property name="os.arch" value="x86_64"/>
    <property name="java.vm.specification.name" value="Java Virtual Machine Specification"/>
    <property name="java.awt.printerjob" value="sun.lwawt.macosx.CPrinterJob"/>
    <property name="sun.os.patch.level" value="unknown"/>
    <property name="java.library.path" value="/Users/vardhmangolchha/Library/Java/Extensions:/Library/Java/Extensions:/Network/Library/Java/Extensions:/System/Library/Java/Extensions:/usr/lib/java:."/>
    <property name="java.vm.info" value="mixed mode"/>
    <property name="java.vendor" value="Oracle Corporation"/>
    <property name="java.vm.version" value="25.202-b08"/>
    <property name="java.ext.dirs" value="/Users/vardhmangolchha/Library/Java/Extensions:/Library/Java/JavaVirtualMachines/jdk1.8.0_202.jdk/Contents/Home/jre/lib/ext:/Library/Java/Extensions:/Network/Library/Java/Extensions:/System/Library/Java/Extensions:/usr/lib/java"/>
    <property name="sun.io.unicode.encoding" value="UnicodeBig"/>
    <property name="java.class.version" value="52.0"/>
    <property name="socksNonProxyHosts" value="local|*.local|169.254/16|*.169.254/16"/>
  </properties>
  <testcase name="VerifyInvalidStatusCodeForSingleResource[{expectedResponseCode=404, expectedName=fuchsia rose, expectedYear=2001, ResourceId=abc123, expectedID=abc123, execute=yes, TestCaseName=VerifyInvalidStatusCodeForSingleResource, =}](1)" classname="tests.ResourceTest" time="4.29">
    <system-out><![CDATA[Request method:	GET
Request URI:	https://reqres.in/api/unknown/abc123
Proxy:			<none>
Request params:	<none>
Query params:	<none>
Form params:	<none>
Path params:	<none>
Headers:		Accept=*/*
Cookies:		<none>
Multiparts:		<none>
Body:			<none>
{
    
}
]]></system-out>
  </testcase>
  <testcase name="VerifyInvalidStatusCodeForSingleResource[{expectedResponseCode=404, expectedName=fuchsia rose, expectedYear=2001, ResourceId=2.1, expectedID=2, execute=yes, TestCaseName=VerifyInvalidStatusCodeForSingleResource, =}](2)" classname="tests.ResourceTest" time="0.863">
    <system-out><![CDATA[Request method:	GET
Request URI:	https://reqres.in/api/unknown/2.1
Proxy:			<none>
Request params:	<none>
Query params:	<none>
Form params:	<none>
Path params:	<none>
Headers:		Accept=*/*
Cookies:		<none>
Multiparts:		<none>
Body:			<none>
{
    
}
]]></system-out>
  </testcase>
  <testcase name="VerifyInvalidStatusCodeForSingleResource[{expectedResponseCode=500, expectedName=, expectedYear=, ResourceId=, expectedID=, execute=yes, TestCaseName=VerifyInvalidStatusCodeForSingleResource, =}](3)" classname="tests.ResourceTest" time="0.98">
    <failure message="expected [500] but found [200]" type="java.lang.AssertionError"><![CDATA[java.lang.AssertionError: expected [500] but found [200]
	at tests.ResourceTest.VerifyInvalidStatusCodeForSingleResource(ResourceTest.java:66)
]]></failure>
    <system-out><![CDATA[Request method:	GET
Request URI:	https://reqres.in/api/unknown/
Proxy:			<none>
Request params:	<none>
Query params:	<none>
Form params:	<none>
Path params:	<none>
Headers:		Accept=*/*
Cookies:		<none>
Multiparts:		<none>
Body:			<none>
{
    "page": 1,
    "per_page": 6,
    "total": 12,
    "total_pages": 2,
    "data": [
        {
            "id": 1,
            "name": "cerulean",
            "year": 2000,
            "color": "#98B2D1",
            "pantone_value": "15-4020"
        },
        {
            "id": 2,
            "name": "fuchsia rose",
            "year": 2001,
            "color": "#C74375",
            "pantone_value": "17-2031"
        },
        {
            "id": 3,
            "name": "true red",
            "year": 2002,
            "color": "#BF1932",
            "pantone_value": "19-1664"
        },
        {
            "id": 4,
            "name": "aqua sky",
            "year": 2003,
            "color": "#7BC4C4",
            "pantone_value": "14-4811"
        },
        {
            "id": 5,
            "name": "tigerlily",
            "year": 2004,
            "color": "#E2583E",
            "pantone_value": "17-1456"
        },
        {
            "id": 6,
            "name": "blue turquoise",
            "year": 2005,
            "color": "#53B0AE",
            "pantone_value": "15-5217"
        }
    ],
    "support": {
        "url": "https://reqres.in/#support-heading",
        "text": "To keep ReqRes free, contributions towards server costs are appreciated!"
    }
}
]]></system-out>
  </testcase>
  <testcase name="VerifyResponseDataForSingleResource[{expectedResponseCode=200, expectedName=fuchsia rose, expectedYear=2001, ResourceId=2, expectedID=2, execute=yes, TestCaseName=VerifyResponseDataForSingleResource, =}](1)" classname="tests.ResourceTest" time="1.509">
    <system-out><![CDATA[Request method:	GET
Request URI:	https://reqres.in/api/unknown/2
Proxy:			<none>
Request params:	<none>
Query params:	<none>
Form params:	<none>
Path params:	<none>
Headers:		Accept=*/*
Cookies:		<none>
Multiparts:		<none>
Body:			<none>
{
    "data": {
        "id": 2,
        "name": "fuchsia rose",
        "year": 2001,
        "color": "#C74375",
        "pantone_value": "17-2031"
    },
    "support": {
        "url": "https://reqres.in/#support-heading",
        "text": "To keep ReqRes free, contributions towards server costs are appreciated!"
    }
}
]]></system-out>
  </testcase>
</testsuite>